{
	"icon": "./packages/icon/index",
	"info": "./packages/info/index",
	"loading": "./packages/loading_zt/index",
	"toast": "./packages/toast/index.js",
	"badge": "./packages/badge/index.js",
	"button": "./packages/button/index.vue",
	"button-group": "./packages/button-group/index.vue",
	"container": "./packages/container/index.vue",
	"header": "./packages/header/index.js",
	"main": "./packages/main/index.vue",
	"input": "./packages/input/index.js",
	"form": "./packages/form/index.js",
	"form-item": "./packages/form-item/index.js",
	"footer": "./packages/footer/index.vue",
	"aside": "./packages/aside/index.vue",
	"tabbar-item": "./packages/tabbar-item/index.vue",
	"tabbar": "./packages/tabbar/index.vue",
	"popup": "./packages/popup/index.vue",
	"overlay": "./packages/overlay/index.vue",
	"pull-refresh": "./packages/pull-refresh/index.vue",
	"cell": "./packages/cell/index.vue",
	"cell-group": "./packages/cell-group/index.vue",
	"panel": "./packages/panel/index",
	"list": "./packages/list/index",
	"Lazyload": "./packages/lazyload/index.js",
	"collapse-transition": "./src/transitions/collapse-transition.js",
	"swipe": "./packages/swipe/index",
	"swipe-cell": "./packages/swipe-cell/index",
	"swipe-item": "./packages/swipe-item/index",
	"row": "./packages/row/index.js",
	"col": "./packages/col/index.js",
	"tag": "./packages/tag/index.js",
	"card": "./packages/card/index",
	"tab": "./packages/tab/index",
	"tabg": "./packages/tabg/index",
	"message-box": "./packages/message-box/index.js",
	"message": "./packages/message/index.js",
	"notification": "./packages/notification/index.js",
	"rate": "./packages/rate/index.js",
	"dialog": "./packages/dialog/index.js",
	"radio": "./packages/radio/index.js",
	"radio-group": "./packages/radio-group/index.js",
	"radio-button": "./packages/radio-button/index.js",
	"checkbox": "./packages/checkbox/index.js",
	"checkbox-button": "./packages/checkbox-button/index.js",
	"checkbox-group": "./packages/checkbox-group/index.js",
	"progress": "./packages/progress/index.js",
	"spinner": "./packages/spinner/index.js",
	"actionsheet": "./packages/actionsheet/index.vue",
	"uploader": "./packages/uploader/index",
	"picker": "./packages/picker/index",
	"area": "./packages/area/index.vue"
}
